<?xml version="1.0" encoding="UTF-8" standalone="no"?>
<svg
   xmlns:dc="http://purl.org/dc/elements/1.1/"
   xmlns:cc="http://creativecommons.org/ns#"
   xmlns:rdf="http://www.w3.org/1999/02/22-rdf-syntax-ns#"
   xmlns:svg="http://www.w3.org/2000/svg"
   xmlns="http://www.w3.org/2000/svg"
   xmlns:sodipodi="http://sodipodi.sourceforge.net/DTD/sodipodi-0.dtd"
   xmlns:inkscape="http://www.inkscape.org/namespaces/inkscape"
   version="1.1"
   width="45"
   height="45"
   id="svg850"
   sodipodi:docname="crowned_rook_w.svg"
   inkscape:version="1.0.1 (3bc2e813f5, 2020-09-07)">
  <metadata
     id="metadata856">
    <rdf:RDF>
      <cc:Work
         rdf:about="">
        <dc:format>image/svg+xml</dc:format>
        <dc:type
           rdf:resource="http://purl.org/dc/dcmitype/StillImage" />
        <dc:title></dc:title>
      </cc:Work>
    </rdf:RDF>
  </metadata>
  <defs
     id="defs854" />
  <sodipodi:namedview
     pagecolor="#ffffff"
     bordercolor="#666666"
     borderopacity="1"
     objecttolerance="10"
     gridtolerance="10"
     guidetolerance="10"
     inkscape:pageopacity="0"
     inkscape:pageshadow="2"
     inkscape:window-width="1540"
     inkscape:window-height="871"
     id="namedview852"
     showgrid="false"
     showguides="false"
     inkscape:zoom="7.8555556"
     inkscape:cx="12.127428"
     inkscape:cy="14.863073"
     inkscape:window-x="60"
     inkscape:window-y="1024"
     inkscape:window-maximized="1"
     inkscape:current-layer="svg850" />
  <g
     id="g1470"
     transform="translate(0,2.625)">
    <g
       style="opacity:0.994;fill:none;fill-opacity:1;fill-rule:evenodd;stroke:#000000;stroke-width:2.14286;stroke-linecap:round;stroke-linejoin:round;stroke-miterlimit:4;stroke-dasharray:none;stroke-opacity:1"
       id="g16"
       transform="matrix(0.7,0,0,0.7,6.75,-7.649999)">
      <path
         d="m 22.5,25 c 0,0 4.5,-7.5 3,-10.5 0,0 -1,-2.5 -3,-2.5 -2,0 -3,2.5 -3,2.5 -1.5,3 3,10.5 3,10.5"
         style="fill:#ffffff;stroke:#000000;stroke-width:2.14286;stroke-linecap:butt;stroke-linejoin:miter;stroke-miterlimit:4;stroke-dasharray:none"
         id="path6" />
      <path
         d="M 38.5,19.5 C 34.5,13 25,16 22.5,23.5 V 27 23.5 C 20,16 10.5,13 6.5,19.5 c -3,6 6,10.5 6,10.5 5.5,-3 14.5,-3 20,0 0,0 9,-4.5 6,-10.5 z"
         style="fill:#ffffff;stroke:#000000;stroke-width:2.14286;stroke-miterlimit:4;stroke-dasharray:none"
         id="path8"
         sodipodi:nodetypes="cccccccc" />
    </g>
    <g
       style="opacity:1;fill:#ffffff;fill-opacity:1;fill-rule:evenodd;stroke:#000000;stroke-width:1.5;stroke-linecap:round;stroke-linejoin:round;stroke-miterlimit:4;stroke-dasharray:none;stroke-opacity:1"
       id="g848">
      <path
         d="M 9,39 H 36 V 36 H 9 Z"
         style="stroke-linecap:butt"
         id="path834" />
      <path
         d="m 12,36 v -4 h 21 v 4 z"
         style="stroke-linecap:butt"
         id="path836" />
      <path
         d="M 11,14 V 9 h 4 v 2 h 5 V 9 h 5 v 2 h 5 V 9 h 4 v 5"
         style="stroke-linecap:butt"
         id="path838" />
      <path
         d="m 34,14 -3,3 H 14 l -3,-3"
         id="path840" />
      <path
         d="M 31,17 V 29.5 H 14 V 17"
         style="stroke-linecap:butt;stroke-linejoin:miter"
         id="path842" />
      <path
         d="m 31,29.5 1.5,2.5 h -20 L 14,29.5"
         id="path844" />
      <path
         d="M 11,14 H 34"
         style="fill:none;stroke:#000000;stroke-linejoin:miter"
         id="path846" />
    </g>
  </g>
</svg>
