<?xml version="1.0" encoding="UTF-8" standalone="no"?>
<svg
   xmlns:dc="http://purl.org/dc/elements/1.1/"
   xmlns:cc="http://creativecommons.org/ns#"
   xmlns:rdf="http://www.w3.org/1999/02/22-rdf-syntax-ns#"
   xmlns:svg="http://www.w3.org/2000/svg"
   xmlns="http://www.w3.org/2000/svg"
   xmlns:xlink="http://www.w3.org/1999/xlink"
   xmlns:sodipodi="http://sodipodi.sourceforge.net/DTD/sodipodi-0.dtd"
   xmlns:inkscape="http://www.inkscape.org/namespaces/inkscape"
   version="1.1"
   width="45"
   height="45"
   id="svg14"
   sodipodi:docname="ferz_alfil_w.svg"
   inkscape:version="1.0.1 (3bc2e813f5, 2020-09-07)">
  <metadata
     id="metadata20">
    <rdf:RDF>
      <cc:Work
         rdf:about="">
        <dc:format>image/svg+xml</dc:format>
        <dc:type
           rdf:resource="http://purl.org/dc/dcmitype/StillImage" />
        <dc:title></dc:title>
      </cc:Work>
    </rdf:RDF>
  </metadata>
  <defs
     id="defs18" />
  <sodipodi:namedview
     pagecolor="#ffffff"
     bordercolor="#666666"
     borderopacity="1"
     objecttolerance="10"
     gridtolerance="10"
     guidetolerance="10"
     inkscape:pageopacity="0"
     inkscape:pageshadow="2"
     inkscape:window-width="1540"
     inkscape:window-height="871"
     id="namedview16"
     showgrid="true"
     inkscape:zoom="11.109433"
     inkscape:cx="17.633755"
     inkscape:cy="22.287324"
     inkscape:window-x="60"
     inkscape:window-y="1024"
     inkscape:window-maximized="1"
     inkscape:current-layer="svg14"
     inkscape:document-rotation="0" />
  <g
     style="fill:#ffffff;fill-opacity:1;fill-rule:evenodd;stroke:#000000;stroke-width:1.5;stroke-linecap:butt;stroke-linejoin:round;stroke-miterlimit:4;stroke-dasharray:none;stroke-opacity:1"
     id="g8">
    <path
       style="opacity:1;fill:#ffffff;fill-opacity:1;fill-rule:evenodd;stroke:#000000;stroke-width:1.5;stroke-linecap:butt;stroke-linejoin:round;stroke-miterlimit:4;stroke-dasharray:none;stroke-opacity:1"
       d="M 22.5,10.5 C 15.106142,2.4164656 3.4298435,14.790412 5.7540725,23.331542 8.0783025,31.872671 15.10564,26.504073 17.5,26 L 9.5855734,37.514854 20.25,26"
       id="path838-6"
       sodipodi:nodetypes="czccc" />
    <path
       d="m 22.5,10.5 c -11,4 -10.5,14 -5,15.5 h 5"
       id="path4"
       sodipodi:nodetypes="ccc"
       style="fill:#ffffff;fill-opacity:1;stroke-linecap:round;stroke-linejoin:round" />
  </g>
  <path
     style="opacity:0.999;fill:#ffffff;fill-opacity:1;stroke:#000000;stroke-width:1.5;stroke-linecap:round;stroke-linejoin:round;stroke-miterlimit:4;stroke-dasharray:none;stroke-opacity:1"
     id="path898"
     sodipodi:type="arc"
     sodipodi:cx="20.249548"
     sodipodi:cy="16.75"
     sodipodi:rx="2.5"
     sodipodi:ry="2.5"
     sodipodi:start="1.5707963"
     sodipodi:end="4.712389"
     sodipodi:arc-type="arc"
     d="M 20.249548,19.25 A 2.5,2.5 0 0 1 18.084484,18 a 2.5,2.5 0 0 1 0,-2.5 2.5,2.5 0 0 1 2.165064,-1.25"
     sodipodi:open="true" />
  <use
     x="0"
     y="0"
     xlink:href="#g8"
     id="use917"
     transform="matrix(-1,0,0,1,45,0)"
     width="100%"
     height="100%"
     style="fill:#ffffff;fill-opacity:1" />
  <path
     d="M 20.25,14.396402 V 31 H 24"
     style="fill:#ffffff;fill-opacity:1;fill-rule:evenodd;stroke:#000000;stroke-width:1.5;stroke-linecap:round;stroke-linejoin:round;stroke-miterlimit:4;stroke-dasharray:none;stroke-opacity:1"
     id="path10"
     sodipodi:nodetypes="ccc" />
  <use
     x="0"
     y="0"
     xlink:href="#path898"
     id="use919"
     transform="matrix(-1,0,0,1,45,0)"
     width="100%"
     height="100%"
     style="fill:#ffffff;fill-opacity:1" />
  <use
     x="0"
     y="0"
     xlink:href="#path10"
     id="use921"
     transform="matrix(-1,0,0,1,45,0)"
     width="100%"
     height="100%"
     style="fill:#ffffff;fill-opacity:1" />
  <path
     d="m 27.499999,16.749995 c 5.5,-1.5 6,-11.4999998 -4.999999,-15.4999998 -11,4 -10.5,13.9999998 -5,15.4999998 z"
     id="path4-3"
     style="opacity:1;fill:#ffffff;fill-opacity:1;fill-rule:evenodd;stroke:#000000;stroke-width:1.5;stroke-linecap:butt;stroke-linejoin:round;stroke-miterlimit:4;stroke-dasharray:none;stroke-opacity:1"
     sodipodi:nodetypes="cccc" />
</svg>
