<?xml version="1.0" encoding="UTF-8" standalone="no"?>
<svg
   xmlns:dc="http://purl.org/dc/elements/1.1/"
   xmlns:cc="http://creativecommons.org/ns#"
   xmlns:rdf="http://www.w3.org/1999/02/22-rdf-syntax-ns#"
   xmlns:svg="http://www.w3.org/2000/svg"
   xmlns="http://www.w3.org/2000/svg"
   xmlns:sodipodi="http://sodipodi.sourceforge.net/DTD/sodipodi-0.dtd"
   xmlns:inkscape="http://www.inkscape.org/namespaces/inkscape"
   version="1.1"
   width="45"
   height="45"
   id="svg18"
   sodipodi:docname="gold_b.svg"
   inkscape:version="1.0.1 (3bc2e813f5, 2020-09-07)">
  <metadata
     id="metadata24">
    <rdf:RDF>
      <cc:Work
         rdf:about="">
        <dc:format>image/svg+xml</dc:format>
        <dc:type
           rdf:resource="http://purl.org/dc/dcmitype/StillImage" />
        <dc:title></dc:title>
      </cc:Work>
    </rdf:RDF>
  </metadata>
  <defs
     id="defs22" />
  <sodipodi:namedview
     pagecolor="#ffffff"
     bordercolor="#666666"
     borderopacity="1"
     objecttolerance="10"
     gridtolerance="10"
     guidetolerance="10"
     inkscape:pageopacity="0"
     inkscape:pageshadow="2"
     inkscape:window-width="1540"
     inkscape:window-height="908"
     id="namedview20"
     showgrid="false"
     inkscape:zoom="11.109433"
     inkscape:cx="31.235814"
     inkscape:cy="27.439298"
     inkscape:window-x="60"
     inkscape:window-y="1079"
     inkscape:window-maximized="0"
     inkscape:current-layer="g16"
     inkscape:document-rotation="0" />
  <g
     style="fill:none;fill-opacity:1;fill-rule:evenodd;stroke:#000000;stroke-width:1.5;stroke-linecap:round;stroke-linejoin:round;stroke-miterlimit:4;stroke-dasharray:none;stroke-opacity:1"
     id="g16">
    <g
       style="opacity:1;fill:#000000;fill-opacity:1;fill-rule:evenodd;stroke:#000000;stroke-width:1.5;stroke-linecap:round;stroke-linejoin:round;stroke-miterlimit:4;stroke-dasharray:none;stroke-opacity:1"
       id="g20"
       transform="translate(0,0.45028103)" />
    <path
       style="opacity:0.999;fill:#000000;fill-opacity:1;stroke:#000000;stroke-width:1.5;stroke-linecap:round;stroke-linejoin:round;stroke-opacity:1;paint-order:normal"
       id="path875"
       sodipodi:type="arc"
       sodipodi:cx="22.5"
       sodipodi:cy="27.75"
       sodipodi:rx="10"
       sodipodi:ry="10"
       sodipodi:start="3.1415927"
       sodipodi:end="0"
       sodipodi:open="true"
       sodipodi:arc-type="arc"
       d="m 12.5,27.75 a 10,10 0 0 1 10,-10 10,10 0 0 1 10,10" />
    <g
       id="g875"
       transform="translate(1.5,4)"
       style="fill:#000000;fill-opacity:1;fill-rule:evenodd;stroke:#000000;stroke-width:1.5;stroke-linecap:round;stroke-linejoin:round;stroke-miterlimit:4;stroke-dasharray:none;stroke-opacity:1">
      <path
         id="path871"
         style="fill:#000000;fill-opacity:1;stroke:#000000;stroke-width:1.5;stroke-linecap:round;stroke-linejoin:round;stroke-miterlimit:4;stroke-dasharray:none;stroke-opacity:1"
         d="m 31,31 c 2.666667,-1.166667 5.333333,-2.333333 8,-3.5 -2.666667,-1.166667 -5.333333,-2.333333 -8,-3.5" />
      <path
         id="path873"
         style="fill:#000000;fill-opacity:1;fill-rule:evenodd;stroke:#000000;stroke-width:1.5;stroke-linecap:round;stroke-linejoin:round;stroke-miterlimit:4;stroke-dasharray:none;stroke-opacity:1"
         d="m 42.75,27.499999 c 0.03764,1.183064 -1.142516,2.194615 -2.305903,1.976467 -1.167618,-0.143208 -1.985812,-1.449272 -1.606358,-2.56235 0.31058,-1.142189 1.735288,-1.763648 2.783733,-1.214266 0.680293,0.321055 1.135971,1.047875 1.128528,1.800149 z" />
    </g>
    <g
       id="g907"
       transform="translate(0,-1.9999999)"
       style="fill:#000000;fill-opacity:1">
      <path
         style="fill:#000000;stroke:#000000;stroke-width:1.5;stroke-linecap:round;stroke-linejoin:round;stroke-miterlimit:4;stroke-dasharray:none;stroke-opacity:1;fill-opacity:1"
         d="M 32.5,30 39,21 31,24"
         id="path895"
         sodipodi:nodetypes="ccc" />
      <path
         d="m 42.75,19.749999 a 2,2 0 1 1 -4,0 2,2 0 1 1 4,0 z"
         id="path4"
         style="opacity:1;fill:#000000;fill-opacity:1;fill-rule:evenodd;stroke:#000000;stroke-width:1.5;stroke-linecap:round;stroke-linejoin:round;stroke-miterlimit:4;stroke-dasharray:none;stroke-opacity:1" />
      <path
         d="m 24.5,7.7499991 a 2,2 0 1 1 -4,0 2,2 0 1 1 4,0 z"
         id="path4-3"
         style="opacity:1;fill:#000000;fill-opacity:1;fill-rule:evenodd;stroke:#000000;stroke-width:1.5;stroke-linecap:round;stroke-linejoin:round;stroke-miterlimit:4;stroke-dasharray:none;stroke-opacity:1" />
    </g>
    <path
       style="fill:#000000;stroke:#000000;stroke-width:1.5;stroke-linecap:round;stroke-linejoin:round;stroke-miterlimit:4;stroke-dasharray:none;stroke-opacity:1;fill-opacity:1"
       d="m 25.5,18 -3,-10 -3,10"
       id="path903"
       sodipodi:nodetypes="ccc" />
    <g
       id="g959"
       transform="matrix(-1,0,0,1,45,-1.9999999)"
       style="fill:#000000;fill-opacity:1">
      <path
         style="fill:#000000;stroke:#000000;stroke-width:1.5;stroke-linecap:round;stroke-linejoin:round;stroke-miterlimit:4;stroke-dasharray:none;stroke-opacity:1;fill-opacity:1"
         d="M 32.5,30 39,21 31,24"
         id="path946"
         sodipodi:nodetypes="ccc" />
      <path
         d="m 42.75,19.749999 a 2,2 0 1 1 -4,0 2,2 0 1 1 4,0 z"
         id="path948"
         style="fill:#000000;fill-opacity:1;fill-rule:evenodd;stroke:#000000;stroke-width:1.5;stroke-linecap:round;stroke-linejoin:round;stroke-miterlimit:4;stroke-dasharray:none;stroke-opacity:1" />
    </g>
    <path
       d="m 24.5,5.7499991 a 2,2 0 1 1 -4,0 2,2 0 1 1 4,0 z"
       id="path950"
       style="fill:#000000;fill-opacity:1;fill-rule:evenodd;stroke:#000000;stroke-width:1.5;stroke-linecap:round;stroke-linejoin:round;stroke-miterlimit:4;stroke-dasharray:none;stroke-opacity:1" />
    <g
       id="g959-3"
       transform="matrix(-1,0,0,1,43.5,4)"
       style="fill:#000000;fill-opacity:1;fill-rule:evenodd;stroke:#000000;stroke-width:1.5;stroke-linecap:round;stroke-linejoin:round;stroke-miterlimit:4;stroke-dasharray:none;stroke-opacity:1">
      <path
         id="path946-6"
         style="fill:#000000;fill-opacity:1;stroke:#000000;stroke-width:1.5;stroke-linecap:round;stroke-linejoin:round;stroke-miterlimit:4;stroke-dasharray:none;stroke-opacity:1"
         d="m 31,31 c 2.666667,-1.166667 5.333333,-2.333333 8,-3.5 -2.666667,-1.166667 -5.333333,-2.333333 -8,-3.5" />
      <path
         id="path948-7"
         style="fill:#000000;fill-opacity:1;fill-rule:evenodd;stroke:#000000;stroke-width:1.5;stroke-linecap:round;stroke-linejoin:round;stroke-miterlimit:4;stroke-dasharray:none;stroke-opacity:1"
         d="m 42.75,27.499999 c 0.03764,1.183064 -1.142516,2.194615 -2.305903,1.976467 -1.167618,-0.143208 -1.985812,-1.449272 -1.606358,-2.56235 0.31058,-1.142189 1.735288,-1.763648 2.783733,-1.214266 0.680293,0.321055 1.135971,1.047875 1.128528,1.800149 z" />
    </g>
    <path
       d="m 12.5,28 v 7 c 5.5,3.5 14.5,3.5 20,0 v -7"
       style="fill:#000000;stroke:#000000;stroke-linejoin:round;fill-opacity:1"
       id="path8"
       sodipodi:nodetypes="cccc" />
    <path
       d="M 12.5,28 C 18,25 27,25 32.5,28"
       style="fill:#000000;stroke:#fffffd;stroke-linecap:round;stroke-linejoin:round;fill-opacity:1;stroke-opacity:1"
       id="path10" />
    <path
       d="M 12.5,35 C 18,32 27,32 32.5,35"
       style="fill:#000000;stroke:#ffffff;stroke-linecap:round;stroke-linejoin:round;fill-opacity:1;stroke-opacity:1"
       id="path14" />
    <path
       id="path844"
       style="fill:#000000;stroke:#000000;stroke-width:1.5;stroke-linecap:round;stroke-linejoin:round;stroke-miterlimit:4;stroke-dasharray:none;stroke-opacity:1;fill-opacity:1"
       d="m 19,38 -0.5,5 h 8 L 26,38"
       sodipodi:nodetypes="cccc" />
  </g>
</svg>
