<?xml version="1.0" encoding="UTF-8" standalone="no"?>
<svg
   xmlns:dc="http://purl.org/dc/elements/1.1/"
   xmlns:cc="http://creativecommons.org/ns#"
   xmlns:rdf="http://www.w3.org/1999/02/22-rdf-syntax-ns#"
   xmlns:svg="http://www.w3.org/2000/svg"
   xmlns="http://www.w3.org/2000/svg"
   xmlns:sodipodi="http://sodipodi.sourceforge.net/DTD/sodipodi-0.dtd"
   xmlns:inkscape="http://www.inkscape.org/namespaces/inkscape"
   version="1.1"
   width="45"
   height="45"
   id="svg18"
   sodipodi:docname="lance_b.svg"
   inkscape:version="1.0.1 (3bc2e813f5, 2020-09-07)">
  <metadata
     id="metadata24">
    <rdf:RDF>
      <cc:Work
         rdf:about="">
        <dc:format>image/svg+xml</dc:format>
        <dc:type
           rdf:resource="http://purl.org/dc/dcmitype/StillImage" />
        <dc:title />
      </cc:Work>
    </rdf:RDF>
  </metadata>
  <defs
     id="defs22" />
  <sodipodi:namedview
     pagecolor="#ffffff"
     bordercolor="#666666"
     borderopacity="1"
     objecttolerance="10"
     gridtolerance="10"
     guidetolerance="10"
     inkscape:pageopacity="0"
     inkscape:pageshadow="2"
     inkscape:window-width="1540"
     inkscape:window-height="871"
     id="namedview20"
     showgrid="false"
     inkscape:zoom="15.711111"
     inkscape:cx="11.278479"
     inkscape:cy="12.589306"
     inkscape:window-x="60"
     inkscape:window-y="1024"
     inkscape:window-maximized="1"
     inkscape:current-layer="g16"
     inkscape:document-rotation="0" />
  <g
     style="opacity:1;fill:#ffffff;fill-opacity:1;fill-rule:evenodd;stroke:#000000;stroke-width:1.5;stroke-linecap:round;stroke-linejoin:round;stroke-miterlimit:4;stroke-dasharray:none;stroke-opacity:1"
     id="g16">
    <path
       d="m 19,39 h 7 v -3 h -7 z"
       style="fill:#000000;fill-opacity:1;stroke-linecap:butt"
       id="path2"
       sodipodi:nodetypes="ccccc" />
    <path
       d="m 21,36 v -4 h 3 v 4 z"
       style="fill:#000000;fill-opacity:1;stroke-linecap:butt"
       id="path4"
       sodipodi:nodetypes="ccccc" />
    <path
       d="M 25,29.5 29,32 H 16 l 4,-2.5"
       id="path12"
       sodipodi:nodetypes="cccc"
       style="fill:#000000;fill-opacity:1;stroke:#000000;stroke-opacity:1" />
    <path
       d="m 20,9 h 1 l -1,20.5 h 5 L 24,9 h 1"
       style="fill:#000000;fill-opacity:1;stroke:#050000;stroke-linecap:round;stroke-linejoin:round;stroke-opacity:1"
       id="path10"
       sodipodi:nodetypes="cccccc" />
    <path
       style="fill:none;stroke:#ffffff;stroke-width:1.5;stroke-linecap:round;stroke-linejoin:round;stroke-miterlimit:4;stroke-dasharray:none;stroke-opacity:1"
       d="m 21,33.5 h 3"
       id="path869"
       sodipodi:nodetypes="cc" />
    <path
       style="opacity:1;fill:none;fill-opacity:1;fill-rule:evenodd;stroke:#ffffff;stroke-width:1.5;stroke-linecap:round;stroke-linejoin:round;stroke-miterlimit:4;stroke-dasharray:none;stroke-opacity:1"
       d="m 21,34.5 h 3"
       id="path869-3"
       sodipodi:nodetypes="cc" />
    <path
       style="opacity:1;fill:none;fill-opacity:1;fill-rule:evenodd;stroke:#ffffff;stroke-width:1.5;stroke-linecap:round;stroke-linejoin:round;stroke-miterlimit:4;stroke-dasharray:none;stroke-opacity:1"
       d="m 19.75,29.75 h 5.5"
       id="path869-3-6"
       sodipodi:nodetypes="cc" />
    <circle
       style="opacity:0.999;fill:#000000;fill-opacity:1;stroke:#000000;stroke-width:1.5;stroke-linecap:round;stroke-linejoin:round;stroke-opacity:1"
       id="path849"
       sodipodi:type="arc"
       sodipodi:cx="22.5"
       sodipodi:cy="9"
       sodipodi:rx="2.5"
       sodipodi:ry="2.5"
       sodipodi:start="3.1415927"
       sodipodi:end="0"
       sodipodi:open="true"
       sodipodi:arc-type="arc"
       d="M 20,9 A 2.5,2.5 0 0 1 22.5,6.5 2.5,2.5 0 0 1 25,9" />
    <path
       style="opacity:1;fill:none;fill-opacity:1;fill-rule:evenodd;stroke:#ffffff;stroke-width:1.5;stroke-linecap:round;stroke-linejoin:round;stroke-miterlimit:4;stroke-dasharray:none;stroke-opacity:1"
       d="m 21,9 h 3"
       id="path869-7"
       sodipodi:nodetypes="cc" />
  </g>
</svg>
