<?xml version="1.0" encoding="UTF-8" standalone="no"?>
<svg
   xmlns:dc="http://purl.org/dc/elements/1.1/"
   xmlns:cc="http://creativecommons.org/ns#"
   xmlns:rdf="http://www.w3.org/1999/02/22-rdf-syntax-ns#"
   xmlns:svg="http://www.w3.org/2000/svg"
   xmlns="http://www.w3.org/2000/svg"
   xmlns:sodipodi="http://sodipodi.sourceforge.net/DTD/sodipodi-0.dtd"
   xmlns:inkscape="http://www.inkscape.org/namespaces/inkscape"
   version="1.1"
   width="45"
   height="45"
   id="svg14"
   sodipodi:docname="phoenix_b.svg"
   inkscape:version="1.0.2 (e86c870879, 2021-01-15, custom)">
  <metadata
     id="metadata20">
    <rdf:RDF>
      <cc:Work
         rdf:about="">
        <dc:format>image/svg+xml</dc:format>
        <dc:type
           rdf:resource="http://purl.org/dc/dcmitype/StillImage" />
        <dc:title></dc:title>
      </cc:Work>
    </rdf:RDF>
  </metadata>
  <defs
     id="defs18" />
  <sodipodi:namedview
     pagecolor="#ffffff"
     bordercolor="#666666"
     borderopacity="1"
     objecttolerance="10"
     gridtolerance="10"
     guidetolerance="10"
     inkscape:pageopacity="0"
     inkscape:pageshadow="2"
     inkscape:window-width="1920"
     inkscape:window-height="1051"
     id="namedview16"
     showgrid="true"
     inkscape:zoom="15.711111"
     inkscape:cx="30.566624"
     inkscape:cy="18.058205"
     inkscape:window-x="2880"
     inkscape:window-y="0"
     inkscape:window-maximized="1"
     inkscape:current-layer="svg14"
     inkscape:document-rotation="0"
     showguides="false" />
  <g
     style="fill-opacity:1;fill-rule:evenodd;stroke:#000000;stroke-width:2.14286;stroke-linecap:round;stroke-linejoin:round;stroke-miterlimit:4;stroke-dasharray:none;stroke-opacity:1"
     id="g24"
     transform="matrix(0.7,0,0,0.7,6.75,-4.549999)">
    <path
       d="m 14,29.5 v -13 h 17 v 13 z"
       style="stroke-width:2.14286;stroke-linecap:butt;stroke-linejoin:round;stroke-miterlimit:4;stroke-dasharray:none"
       id="path8" />
    <path
       d="M 14,16.5 11,14 h 23 l -3,2.5 z"
       style="stroke-width:2.14286;stroke-linecap:butt;stroke-miterlimit:4;stroke-dasharray:none"
       id="path10-6" />
    <path
       d="m 11,14 v -3 h 9 V 9 h 5 v 2 h 9 v 3 z"
       style="stroke-width:2.14286;stroke-linecap:butt;stroke-miterlimit:4;stroke-dasharray:none"
       id="path12" />
    <path
       d="M 31,16.5 H 14 v 13 h 17 z"
       style="fill:none;stroke:#ffffff;stroke-width:1.42857;stroke-linejoin:round;stroke-miterlimit:4;stroke-dasharray:none"
       id="path20"
       sodipodi:nodetypes="ccccc" />
    <path
       d="M 11,14 H 34"
       style="fill:none;stroke:#ffffff;stroke-width:1.42857;stroke-linejoin:miter;stroke-miterlimit:4;stroke-dasharray:none"
       id="path22" />
  </g>
  <g
     style="fill:#004e00;fill-opacity:1;fill-rule:evenodd;stroke:#000000;stroke-width:1.5;stroke-linecap:butt;stroke-linejoin:round;stroke-miterlimit:4;stroke-dasharray:none;stroke-opacity:1"
     id="g8">
    <path
       style="opacity:1;fill:#000000;fill-opacity:1;fill-rule:evenodd;stroke:#000000;stroke-width:1.5;stroke-linecap:butt;stroke-linejoin:round;stroke-miterlimit:4;stroke-dasharray:none;stroke-opacity:1"
       d="M 22.5,10.5 C 15.106142,2.4164656 3.4298435,14.790412 5.7540725,23.331542 8.0783025,31.872671 15.10564,26.504073 17.5,26 L 9.5855734,37.514854 20.25,26"
       id="path838-6"
       sodipodi:nodetypes="czccc" />
    <path
       d="m 22.5,10.5 c -11,4 -10.5,14 -5,15.5 h 5"
       id="path4"
       sodipodi:nodetypes="ccc"
       style="fill:#000000;fill-opacity:1;stroke:#ffffff;stroke-linecap:round;stroke-opacity:1" />
  </g>
  <path
     d="M 18.75,15 V 26"
     style="fill:#000000;fill-opacity:1;fill-rule:evenodd;stroke:#ffffff;stroke-width:1.5;stroke-linecap:round;stroke-linejoin:round;stroke-miterlimit:4;stroke-dasharray:none;stroke-opacity:1"
     id="path10"
     sodipodi:nodetypes="cc" />
  <path
     style="opacity:0.999;fill:#ffffff;fill-opacity:1;stroke:#ffffff;stroke-width:1.5;stroke-linecap:round;stroke-linejoin:round;stroke-miterlimit:4;stroke-dasharray:none;stroke-opacity:1"
     id="path898"
     sodipodi:type="arc"
     sodipodi:cx="20.249548"
     sodipodi:cy="16.75"
     sodipodi:rx="2.5"
     sodipodi:ry="2.5"
     sodipodi:start="1.5707963"
     sodipodi:end="4.712389"
     sodipodi:arc-type="chord"
     d="M 20.249548,19.25 A 2.5,2.5 0 0 1 18.084484,18 a 2.5,2.5 0 0 1 0,-2.5 2.5,2.5 0 0 1 2.165064,-1.25 z"
     sodipodi:open="true" />
  <g
     style="fill:#004e00;fill-opacity:1;fill-rule:evenodd;stroke:#000000;stroke-width:1.5;stroke-linecap:butt;stroke-linejoin:round;stroke-miterlimit:4;stroke-dasharray:none;stroke-opacity:1"
     id="g842"
     transform="matrix(-1,0,0,1,45,0)">
    <path
       style="opacity:1;fill:#000000;fill-opacity:1;fill-rule:evenodd;stroke:#000000;stroke-width:1.5;stroke-linecap:butt;stroke-linejoin:round;stroke-miterlimit:4;stroke-dasharray:none;stroke-opacity:1"
       d="M 22.5,10.5 C 15.106142,2.4164656 3.4298435,14.790412 5.7540725,23.331542 8.0783025,31.872671 15.10564,26.504073 17.5,26 L 9.5855734,37.514854 20.25,26"
       id="path838"
       sodipodi:nodetypes="czccc" />
    <path
       d="m 22.5,10.5 c -11,4 -10.5,14 -5,15.5 h 5"
       id="path840"
       sodipodi:nodetypes="ccc"
       style="fill:#000000;fill-opacity:1;stroke:#ffffff;stroke-linecap:round;stroke-opacity:1" />
  </g>
  <path
     d="M 26.25,15 V 26"
     style="fill:#000000;fill-opacity:1;fill-rule:evenodd;stroke:#ffffff;stroke-width:1.5;stroke-linecap:round;stroke-linejoin:round;stroke-miterlimit:4;stroke-dasharray:none;stroke-opacity:1"
     id="path844"
     sodipodi:nodetypes="cc" />
  <path
     style="opacity:0.999;fill:#fff5f0;fill-opacity:1;stroke:#ffffff;stroke-width:1.5;stroke-linecap:round;stroke-linejoin:round;stroke-miterlimit:4;stroke-dasharray:none;stroke-opacity:1"
     id="path846"
     sodipodi:type="arc"
     sodipodi:cx="-24.750452"
     sodipodi:cy="16.75"
     sodipodi:rx="2.5"
     sodipodi:ry="2.5"
     sodipodi:start="1.5707963"
     sodipodi:end="4.712389"
     sodipodi:arc-type="chord"
     d="m -24.750452,19.25 a 2.5,2.5 0 0 1 -2.165064,-1.25 2.5,2.5 0 0 1 0,-2.5 2.5,2.5 0 0 1 2.165064,-1.25 z"
     sodipodi:open="true"
     transform="scale(-1,1)" />
  <path
     style="fill:#000000;fill-opacity:1;stroke:#000000;stroke-width:1.5;stroke-linecap:round;stroke-linejoin:round;stroke-miterlimit:4;stroke-dasharray:none;stroke-opacity:1"
     d="M 24.75,31 V 14 h -4.5 v 17 h 4.5"
     id="path887"
     sodipodi:nodetypes="ccccc" />
</svg>
